R and Statistics - Introduction to ‘R’ for statistical analysis
…
Residual standard error: 0.3365 on 144 degrees of freedom
Multiple R-squared:  0.8405,    Adjusted R-squared:  0.8349 
F-statistic: 151.7 on 5 and 144 DF,  p-value: < 2.2e-16

We can use augment from the broom package to add predicted values to our dataset, with confidence intervals.

# look carefully at the output from here:
library(broom)

Warning: package 'broom' was built under R version 4.2.3

model3 |> augment(interval="confidence")

# A tibble: 150 × 11
   Sepal.Length Species Petal.Length .fitted .lower .upper  .resid   .hat .sigma
          <dbl> <fct>          <dbl>   <dbl>  <dbl>  <dbl>   <dbl>  <dbl>  <dbl>
 1          5.1 setosa           1.4    4.97   4.87   5.07  0.128  0.0226  0.337
 2          4.9 setosa           1.4    4.97   4.87   5.07 -0.0724 0.0226  0.338
 3          4.7 setosa           1.3    4.92   4.79   5.05 -0.218  0.0378  0.337
 4          4.6 setosa           1.5    5.03   4.93   5.12 -0.427  0.0210  0.336
 5          5   setosa           1.4    4.97   4.87   5.07  0.0276 0.0226  0.338
 6          5.4 setosa           1.7    5.14   4.97   5.30  0.265  0.0583  0.337
 7          4.6 setosa           1.4    4.97   4.87   5.07 -0.372  0.0226  0.336
 8          5   setosa           1.5    5.03   4.93   5.12 -0.0266 0.0210  0.338
 9          4.4 setosa           1.4    4.97   4.87   5.07 -0.572  0.0226  0.334
10          4.9 setosa           1.5    5.03   4.93   5.12 -0.127  0.0210  0.337
# ℹ 140 more rows
# ℹ 2 more variables: .cooksd <dbl>, .std.resid <dbl>
…
